{
	"browserSyncOptions": {
		"proxy": "mobimentor.test/",
		"notify": false
	},
	"browserSyncWatchFiles": ["/assets/css/*.min.css", "/assets/js/*.min.js", "./**/*.php"],
	"paths": {
		"js": "/assets/js",
		"css": "/assets/css",
		"img": "/assets/img",
		"imgsrc": "/assets/image",
		"sass": "/assets/sass",
		"node": "./node_modules/",
		"bower": "./bower_components/",
		"dev": "./src",
		"dist": "./dist",
		"distprod": "./dist-product",
		"vendor": "/asstes/vendors"
	}
}